Palmer Station 16S Analysis
…
Read in Temperature and Salinity data

CTD_B <- read_excel("./Palmer_Station_Metadata/CTD_B_downcast_12-15_clean.xlsx") %>% 
                       data_transform()
CTD_B

## # A tibble: 99 x 17
##    file       Date        Year Month   Day `Temperature (C)` `Conductivity (S/~
##    <chr>      <date>     <int> <int> <int>              <dbl>              <dbl>
##  1 x121031B.~ 2012-10-31  2012    10    31             -1.53                2.70
##  2 x121107B.~ 2012-11-07  2012    11     7             -1.49                2.70
##  3 x121110B.~ 2012-11-10  2012    11    10             -1.10                2.73
##  4 x121114B.~ 2012-11-14  2012    11    14             -1.33                2.71
##  5 x121116B.~ 2012-11-16  2012    11    16             -1.29                2.71
##  6 x121119B.~ 2012-11-19  2012    11    19             -1.29                2.70
##  7 x121122B.~ 2012-11-22  2012    11    22             -1.10                2.73
##  8 x121127B.~ 2012-11-27  2012    11    27             -0.445               2.77
##  9 x121130B.~ 2012-11-30  2012    11    30             -0.378               2.78
## 10 x121207B.~ 2012-12-07  2012    12     7             -0.317               2.79
## # ... with 89 more rows, and 10 more variables: Pressure (dbar) <dbl>,
## #   Fluorescence (mg/m) <dbl>, Salinity <dbl>, Depth (m) <dbl>,
## #   Density (kg/m) <dbl>, year_plot <dbl>, plot_date <date>, lib_season <chr>,
## #   sample_16s <lgl>, month_day <chr>
…
